<?xml version="1.0" encoding="UTF-8" standalone="no"?>
<!-- Created with Inkscape (http://www.inkscape.org/) -->
<svg
   xmlns:dc="http://purl.org/dc/elements/1.1/"
   xmlns:cc="http://web.resource.org/cc/"
   xmlns:rdf="http://www.w3.org/1999/02/22-rdf-syntax-ns#"
   xmlns:svg="http://www.w3.org/2000/svg"
   xmlns="http://www.w3.org/2000/svg"
   xmlns:xlink="http://www.w3.org/1999/xlink"
   xmlns:sodipodi="http://sodipodi.sourceforge.net/DTD/sodipodi-0.dtd"
   xmlns:inkscape="http://www.inkscape.org/namespaces/inkscape"
   width="301.18109"
   height="194.88188"
   id="svg2"
   sodipodi:version="0.32"
   inkscape:version="0.45.1"
   version="1.0"
   sodipodi:docbase="/home/dag/CentOS"
   sodipodi:docname="business-card-centos.svg"
   inkscape:output_extension="org.inkscape.output.svg.inkscape">
  <defs
     id="defs4">
    <filter
       id="filter6465"
       inkscape:collect="always">
      <feGaussianBlur
         id="feGaussianBlur6467"
         stdDeviation="2.4728125"
         inkscape:collect="always" />
    </filter>
    <linearGradient
       y2="211.46875"
       x2="113.46875"
       y1="137.53125"
       x1="39.53125"
       gradientUnits="userSpaceOnUse"
       id="linearGradient4507"
       xlink:href="#linearGradient4348"
       inkscape:collect="always" />
    <linearGradient
       y2="228.45026"
       x2="154.89615"
       y1="156.82332"
       x1="88.662895"
       gradientUnits="userSpaceOnUse"
       id="linearGradient4503"
       xlink:href="#linearGradient4348"
       inkscape:collect="always" />
    <linearGradient
       y2="211.46875"
       x2="209.72679"
       y1="137.53125"
       x1="137.96875"
       gradientUnits="userSpaceOnUse"
       id="linearGradient4499"
       xlink:href="#linearGradient4348"
       inkscape:collect="always" />
    <linearGradient
       y2="157.81766"
       x2="230.11945"
       y1="93.264984"
       x1="157.80753"
       gradientUnits="userSpaceOnUse"
       id="linearGradient4495"
       xlink:href="#linearGradient4348"
       inkscape:collect="always" />
    <linearGradient
       y2="113"
       x2="204.4211"
       y1="42.870628"
       x1="141.94803"
       gradientUnits="userSpaceOnUse"
       id="linearGradient4491"
       xlink:href="#linearGradient4348"
       inkscape:collect="always" />
    <linearGradient
       y2="93.06443"
       x2="154.29752"
       y1="21.437487"
       x1="91.292969"
       gradientUnits="userSpaceOnUse"
       id="linearGradient4487"
       xlink:href="#linearGradient4348"
       inkscape:collect="always" />
    <linearGradient
       y2="109.30125"
       x2="109.71287"
       y1="39.28125"
       x1="39.53125"
       gradientUnits="userSpaceOnUse"
       id="linearGradient4483"
       xlink:href="#linearGradient4348"
       inkscape:collect="always" />
    <linearGradient
       y2="159.13304"
       x2="91.320808"
       y1="97.233208"
       x1="19.91527"
       gradientUnits="userSpaceOnUse"
       id="linearGradient4479"
       xlink:href="#linearGradient4348"
       inkscape:collect="always" />
    <radialGradient
       r="117.84375"
       fy="124.68383"
       fx="125.12608"
       cy="124.68383"
       cx="125.12608"
       gradientTransform="matrix(0.7091967,5.2476561e-3,-3.1729646e-3,0.4288265,36.782696,70.559581)"
       gradientUnits="userSpaceOnUse"
       id="radialGradient4394"
       xlink:href="#linearGradient4348"
       inkscape:collect="always" />
    <filter
       id="filter3223"
       inkscape:collect="always">
      <feGaussianBlur
         id="feGaussianBlur3225"
         stdDeviation="2.5126563"
         inkscape:collect="always" />
    </filter>
    <linearGradient
       id="linearGradient4348">
      <stop
         id="stop4350"
         offset="0"
         style="stop-color:#ffffff;stop-opacity:0.42662117;" />
      <stop
         id="stop4352"
         offset="1"
         style="stop-color:#ffffff;stop-opacity:0;" />
    </linearGradient>
  </defs>
  <sodipodi:namedview
     id="base"
     pagecolor="white"
     bordercolor="#666666"
     borderopacity="1.0"
     gridtolerance="10000"
     guidetolerance="10"
     objecttolerance="10"
     inkscape:pageopacity="1"
     inkscape:pageshadow="2"
     inkscape:zoom="2.0255258"
     inkscape:cx="189.03149"
     inkscape:cy="108.49198"
     inkscape:document-units="px"
     inkscape:current-layer="layer4"
     width="85mm"
     height="55mm"
     units="mm"
     showgrid="false"
     inkscape:window-width="1024"
     inkscape:window-height="700"
     inkscape:window-x="6"
     inkscape:window-y="46"
     showguides="true"
     inkscape:guide-bbox="true">
    <sodipodi:guide
       orientation="vertical"
       position="80.966631"
       id="guide2745" />
    <sodipodi:guide
       orientation="vertical"
       position="102.68939"
       id="guide2747" />
  </sodipodi:namedview>
  <metadata
     id="metadata7">
    <rdf:RDF>
      <cc:Work
         rdf:about="">
        <dc:format>image/svg+xml</dc:format>
        <dc:type
           rdf:resource="http://purl.org/dc/dcmitype/StillImage" />
      </cc:Work>
    </rdf:RDF>
  </metadata>
  <g
     inkscape:groupmode="layer"
     id="layer4"
     inkscape:label="Background"
     style="display:inline">
    <rect
       style="opacity:1;fill:#0000ff;fill-opacity:1;display:inline"
       id="rect1885"
       width="92.013"
       height="194.88"
       x="0"
       y="0.0018768311" />
    <g
       id="g2341"
       transform="matrix(0.3160543,0,0,0.3160543,6.3468961,6.9278945)">
      <g
         style="display:inline"
         inkscape:label="shadow"
         id="layer2">
        <path
           transform="matrix(0.9841415,0,0,0.9841415,2.9474914e-2,2.9552027e-2)"
           id="rect2183"
           d="M 128.50025,2.87525 L 127.0315,4.344 L 94.62525,36.75025 L 39.094,36.75025 L 37.00025,36.75025 L 37.00025,38.844 L 37.00025,94.344 L 4.344,127.0315 L 2.844,128.50025 L 4.344,129.969 L 37.00025,162.62525 L 37.00025,217.844 L 37.00025,219.9065 L 39.094,219.9065 L 94.12525,219.9065 L 126.844,252.62525 L 128.31275,254.094 L 129.7815,252.62525 L 162.5315,219.9065 L 218.31275,219.9065 L 220.4065,219.9065 L 220.4065,217.844 L 220.4065,162.219 L 252.6565,129.969 L 254.1565,128.50025 L 252.6565,127.0315 L 220.4065,94.7815 L 220.4065,38.594 L 220.4065,36.50025 L 218.31275,36.50025 L 162.12525,36.50025 L 129.969,4.344 L 128.50025,2.87525 z M 137.0315,112.219 L 137.0315,117.7815 L 137.0315,119.87525 L 139.12525,119.87525 L 144.87525,119.87525 L 137.719,127.0315 L 136.25025,128.50025 L 137.719,129.969 L 144.2815,136.5315 L 139.12525,136.5315 L 137.0315,136.5315 L 137.0315,138.62525 L 137.0315,145.31275 L 129.7815,138.06275 L 128.31275,136.594 L 126.844,138.06275 L 120.37525,144.5315 L 120.37525,138.62525 L 120.37525,136.5315 L 118.2815,136.5315 L 112.719,136.5315 L 119.18775,130.06275 L 120.6565,128.594 L 119.18775,127.094 L 111.969,119.87525 L 118.1565,119.87525 L 120.25025,119.87525 L 120.25025,117.7815 L 120.25025,112.50025 L 127.0315,119.2815 L 128.50025,120.75025 L 129.969,119.2815 L 137.0315,112.219 z "
           style="fill:#000000;fill-opacity:0.47058824;stroke:none;stroke-width:1.00005305;stroke-miterlimit:4;stroke-opacity:1;filter:url(#filter3223)" />
      </g>
      <g
         style="display:inline"
         id="g2345"
         inkscape:label="logo">
        <rect
           transform="matrix(-0.7071233,-0.7070903,0.7071233,-0.7070903,0,0)"
           y="7.3892245"
           x="-170.03841"
           height="77.935524"
           width="77.945801"
           id="rect2072"
           style="fill:#efa724;fill-opacity:1;stroke:none;stroke-width:1.00005233;stroke-miterlimit:4;stroke-opacity:1;display:inline" />
        <rect
           transform="matrix(-0.7071253,-0.7070883,0.7071253,-0.7070883,0,0)"
           y="-85.435028"
           x="-170.04204"
           height="77.935936"
           width="77.946228"
           id="rect2074"
           style="fill:#932279;fill-opacity:1;stroke:none;stroke-width:1.00005376;stroke-miterlimit:4;stroke-opacity:1;display:inline" />
        <path
           id="rect4397"
           d="M 78.78125,59.90625 C 94.333333,75.458333 109.88542,91.010417 125.4375,106.5625 C 140.98958,91.010417 156.54167,75.458333 172.09375,59.90625 C 156.54167,44.354167 140.98958,28.802083 125.4375,13.25 C 109.88542,28.802083 94.333333,44.354167 78.78125,59.90625 z "
           style="fill:url(#linearGradient4487);fill-opacity:1;stroke:none;stroke-width:1.00005233;stroke-miterlimit:4;stroke-opacity:1;display:inline" />
        <path
           id="rect4399"
           d="M 13.15625,125.53125 C 28.708333,141.08333 44.260417,156.63542 59.8125,172.1875 C 75.364583,156.63542 90.916667,141.08333 106.46875,125.53125 C 90.916667,109.97917 75.364583,94.427083 59.8125,78.875 C 44.260417,94.427083 28.708333,109.97917 13.15625,125.53125 z "
           style="fill:url(#linearGradient4479);fill-opacity:1;stroke:none;stroke-width:1.00005376;stroke-miterlimit:4;stroke-opacity:1;display:inline" />
        <rect
           y="37.279224"
           x="37.527466"
           height="77.72776"
           width="77.737572"
           id="rect2076"
           style="fill:#9ccd2a;fill-opacity:1;stroke:none;stroke-width:1.00000048;stroke-miterlimit:4;stroke-opacity:1;display:inline" />
        <rect
           transform="matrix(-0.7071298,-0.7070838,0.7071298,-0.7070838,0,0)"
           y="-85.540749"
           x="-262.76257"
           height="77.731613"
           width="77.741867"
           id="rect2078"
           style="fill:#9ccd2a;fill-opacity:1;stroke:none;stroke-width:1.00005591;stroke-miterlimit:4;stroke-opacity:1;display:inline" />
        <path
           id="rect4403"
           d="M 78.8125,191.3125 C 94.3125,206.8125 109.8125,222.3125 125.3125,237.8125 C 140.8125,222.3125 156.3125,206.8125 171.8125,191.3125 C 156.3125,175.8125 140.8125,160.3125 125.3125,144.8125 C 109.8125,160.3125 94.3125,175.8125 78.8125,191.3125 z "
           style="fill:url(#linearGradient4503);fill-opacity:1;stroke:none;stroke-width:1.00005591;stroke-miterlimit:4;stroke-opacity:1;display:inline" />
        <rect
           y="135.52953"
           x="37.527405"
           height="77.932655"
           width="77.942711"
           id="rect2080"
           style="fill:#262577;fill-opacity:1;stroke:none;stroke-width:1;stroke-miterlimit:4;stroke-opacity:1;display:inline" />
        <rect
           transform="matrix(-0.7071253,-0.7070883,0.7071253,-0.7070883,0,0)"
           y="7.3860688"
           x="-262.86301"
           height="77.93573"
           width="77.946167"
           id="rect2082"
           style="fill:#262577;fill-opacity:1;stroke:none;stroke-width:1.00005233;stroke-miterlimit:4;stroke-opacity:1;display:inline" />
        <path
           id="rect4407"
           d="M 144.40625,125.53125 C 159.96875,141.09375 175.53125,156.65625 191.09375,172.21875 C 206.64583,156.66667 222.19792,141.11458 237.75,125.5625 C 222.19792,110 206.64583,94.4375 191.09375,78.875 C 175.53125,94.427083 159.96875,109.97917 144.40625,125.53125 z "
           style="fill:url(#linearGradient4495);fill-opacity:1;stroke:none;stroke-width:1.00005233;stroke-miterlimit:4;stroke-opacity:1;display:inline" />
        <rect
           y="37.074409"
           x="135.98146"
           height="77.932808"
           width="77.942741"
           id="rect2084"
           style="fill:#932279;fill-opacity:1;stroke:none;stroke-width:1.00000048;stroke-miterlimit:4;stroke-opacity:1;display:inline" />
        <rect
           y="135.52928"
           x="135.98146"
           height="77.932816"
           width="77.942711"
           id="rect2086"
           style="fill:#efa724;fill-opacity:1;stroke:none;stroke-width:1;stroke-miterlimit:4;stroke-opacity:1;display:inline" />
        <path
           id="rect4401"
           d="M 43.53125,109 C 65.4375,109 87.34375,109 109.25,109 C 109.25,87.09375 109.25,65.1875 109.25,43.28125 C 87.34375,43.28125 65.4375,43.28125 43.53125,43.28125 C 43.53125,65.1875 43.53125,87.09375 43.53125,109 z "
           style="fill:url(#linearGradient4483);fill-opacity:1;stroke:none;stroke-width:1.00000048;stroke-miterlimit:4;stroke-opacity:1;display:inline" />
        <path
           id="rect4405"
           d="M 43.53125,207.46875 C 65.510417,207.46875 87.489583,207.46875 109.46875,207.46875 C 109.46875,185.48958 109.46875,163.51042 109.46875,141.53125 C 87.489583,141.53125 65.510417,141.53125 43.53125,141.53125 C 43.53125,163.51042 43.53125,185.48958 43.53125,207.46875 z "
           style="fill:url(#linearGradient4507);fill-opacity:1;stroke:none;stroke-width:1;stroke-miterlimit:4;stroke-opacity:1;display:inline" />
        <path
           id="rect4411"
           d="M 141.96875,207.46875 C 163.95833,207.46875 185.94792,207.46875 207.9375,207.46875 C 207.9375,185.48958 207.9375,163.51042 207.9375,141.53125 C 185.94792,141.53125 163.95833,141.53125 141.96875,141.53125 C 141.96875,163.51042 141.96875,185.48958 141.96875,207.46875 z "
           style="fill:url(#linearGradient4499);fill-opacity:1;stroke:none;stroke-width:1;stroke-miterlimit:4;stroke-opacity:1;display:inline" />
        <path
           id="rect4409"
           d="M 141.96875,109 C 163.95833,109 185.94792,109 207.9375,109 C 207.9375,87.020833 207.9375,65.041667 207.9375,43.0625 C 185.94792,43.0625 163.95833,43.0625 141.96875,43.0625 C 141.96875,65.041667 141.96875,87.020833 141.96875,109 z "
           style="fill:url(#linearGradient4491);fill-opacity:1;stroke:none;stroke-width:1.00000048;stroke-miterlimit:4;stroke-opacity:1;display:inline" />
      </g>
      <g
         style="display:inline"
         inkscape:label="highlight"
         id="g2363">
        <path
           id="rect4282"
           d="M 107.46875,31.3125 C 111.83525,31.470274 119.32463,29.50063 121.375,34.21875 C 121.63124,57.148873 120.86663,80.379348 121.75,103.125 C 123.18683,106.65193 127.52964,106.67268 129.15625,103.28125 C 131.07482,97.154516 129.28461,89.803781 129.90625,83.25 C 129.90625,65.864583 129.90625,48.479167 129.90625,31.09375 C 134.36725,30.600266 138.84358,31.111729 143.3125,31.09375 C 137.375,25.15625 131.4375,19.21875 125.5,13.28125 C 119.48958,19.291667 113.47917,25.302083 107.46875,31.3125 z M 143.5625,42.71875 C 139.71085,42.781626 143.16628,48.847853 142,51.0625 C 142,64.03125 142,77 142,89.96875 C 152.01042,79.958333 162.02083,69.947917 172.03125,59.9375 C 166.13212,54.521725 161.14251,47.453679 154.4375,43.28125 C 150.79803,43.740607 147.1969,42.568739 143.5625,42.71875 z M 184.65625,55.375 C 189.3763,57.304001 187.69508,63.242838 184,65.21875 C 169.71874,78.843902 155.90574,93.32722 141.875,107.25 C 141.17123,110.96221 145.8046,107.44842 146.96875,106.4375 C 161.25113,91.249629 176.46592,76.773152 191.125,61.875 C 196.70947,67.425913 202.27823,72.992583 207.84375,78.5625 C 207.84375,66.729167 207.84375,54.895833 207.84375,43.0625 C 196,43.0625 184.15625,43.0625 172.3125,43.0625 C 176.42708,47.166667 180.54167,51.270833 184.65625,55.375 z M 99.09375,43.15625 C 91.718309,43.254031 88.58244,51.906527 83.092542,55.688708 C 74.735174,60.148268 84.769432,64.607828 88.098638,69.067388 C 95.159509,76.128259 102.22038,83.189129 109.28125,90.25 C 109.11294,74.762063 109.61679,58.601964 109.03125,43.53125 C 105.71375,43.600792 102.40821,43.02902 99.09375,43.15625 z M 43.5625,78.1875 C 48.986799,72.768021 54.401273,67.338456 59.78125,61.875 C 75.730016,77.588028 91.290913,94.13517 107.59375,109.21875 C 111.49423,109.60511 107.09967,104.16186 105.75,103.28125 C 90.701376,89.370948 76.579865,74.195047 61.8125,59.875 C 67.385515,54.406729 72.877743,48.856877 78.40625,43.34375 C 66.791667,43.34375 55.177083,43.34375 43.5625,43.34375 C 43.5625,54.958333 43.5625,66.572917 43.5625,78.1875 z M 161.15625,108.90625 C 176.59219,108.77969 192.53333,109.15833 207.65625,108.71875 C 207.65319,102.52422 210.05856,94.732392 203.21093,90.968007 C 198.94715,87.761094 194.68022,80.422219 190.41826,79.613725 C 180.66426,89.3779 170.91025,99.142075 161.15625,108.90625 z M 43.71875,95.0625 C 44.550007,99.578397 41.962053,104.76457 44.03125,108.90625 C 59.25,108.90625 74.46875,108.90625 89.6875,108.90625 C 79.71875,98.9375 69.75,88.96875 59.78125,79 C 54.427083,84.354167 49.072917,89.708333 43.71875,95.0625 z M 13.28125,125.5 C 19.34375,131.5625 25.40625,137.625 31.46875,143.6875 C 32.865898,139.00131 27.972168,128.02425 35.46875,129.4375 C 58.072856,129.16213 81.004367,129.98525 103.40625,129.03125 C 106.94728,127.69876 106.21466,123.66103 103.375,122.125 C 97.751553,119.54891 90.268458,121.7771 83.9375,121.03125 C 66.489583,121.03125 49.041667,121.03125 31.59375,121.03125 C 31.071557,116.43527 31.671815,111.82111 31.5625,107.21875 C 25.46875,113.3125 19.375,119.40625 13.28125,125.5 z M 219.96875,114.75 C 221.59558,120.00228 215.39911,122.37142 211.21875,121.125 C 190.48524,120.72319 169.55787,121.19822 148.78125,121.0625 C 145.7601,122.46877 143.19171,126.70822 147.09375,128.65625 C 152.91083,130.71303 159.99952,128.74904 166.25,129.4375 C 184.11458,129.4375 201.97917,129.4375 219.84375,129.4375 C 220.36716,134.06472 219.76414,138.70994 219.875,143.34375 C 225.82292,137.39583 231.77083,131.44792 237.71875,125.5 C 231.80208,119.58333 225.88542,113.66667 219.96875,107.75 C 219.96875,110.08333 219.96875,112.41667 219.96875,114.75 z M 141.90625,141.6875 C 141.97242,147.69001 149.45836,150.44368 152.6066,155.1066 C 164.66482,167.16482 176.72303,179.22303 188.78125,191.28125 C 183.43843,196.65714 178.08047,202.01795 172.71875,207.375 C 184.42708,207.375 196.13542,207.375 207.84375,207.375 C 207.84375,195.72917 207.84375,184.08333 207.84375,172.4375 C 202.27851,178.0077 196.70909,183.57371 191.125,189.125 C 175.03239,173.26383 159.26034,156.79896 142.96875,141.3125 C 142.59169,141.4123 141.62451,140.86915 141.90625,141.6875 z M 108.9375,141.5 C 102.60161,143.56895 99.92417,150.6412 94.628075,154.37192 C 83.611683,165.24438 72.69262,176.49152 61.75,187.28125 C 55.982221,189.06085 53.953276,181.32026 49.59375,179.125 C 47.413086,177.07283 45.616995,174.68253 43.5625,172.5 C 43.5625,184.125 43.5625,195.75 43.5625,207.375 C 55.020833,207.375 66.479167,207.375 77.9375,207.375 C 72.575338,202.01838 67.218418,196.65654 61.875,191.28125 C 77.76646,175.34804 93.775966,159.46373 109.59375,143.5 C 109.60364,142.876 110.20546,141.07421 108.9375,141.5 z M 43.5625,155.78125 C 49,161.21875 54.4375,166.65625 59.875,172.09375 C 70.0625,161.90625 80.25,151.71875 90.4375,141.53125 C 74.8125,141.53125 59.1875,141.53125 43.5625,141.53125 C 43.5625,146.28125 43.5625,151.03125 43.5625,155.78125 z M 191.0625,172.03125 C 196.36869,166.15094 203.59455,161.23179 207.625,154.46875 C 206.78944,150.35077 209.41979,145.3006 207.5625,141.65625 C 191.94134,141.35858 176.24361,141.61906 160.59375,141.53125 C 170.75,151.69792 180.90625,161.86458 191.0625,172.03125 z M 125.15625,145 C 118.51374,148.56185 122.62367,157.53038 121.5,163.59375 C 121.5,182.21875 121.5,200.84375 121.5,219.46875 C 117.9334,220.5315 102.93812,216.86607 109.9246,222.29475 C 115.06432,227.42567 120.20403,232.55658 125.34375,237.6875 C 131.44792,231.58333 137.55208,225.47917 143.65625,219.375 C 139.23923,219.27804 132.12621,221.09125 129.90625,216.5625 C 129.90625,194.17708 129.90625,171.79167 129.90625,149.40625 C 128.39627,148.13228 127.02698,145.45281 125.15625,145 z M 79,191.1875 C 84.601065,196.41842 89.433082,203.24683 95.90625,207.1875 C 100.32021,206.40399 105.36547,208.92262 109.40625,207 C 109.40625,191.60417 109.40625,176.20833 109.40625,160.8125 C 99.270833,170.9375 89.135417,181.0625 79,191.1875 z M 142,207.1875 C 148.32109,207.09939 156.43852,209.68692 160.3131,202.74203 C 162.76158,198.45083 172.59672,194.15578 170.33579,189.86704 C 160.89052,180.42177 151.44526,170.97651 142,161.53125 C 142,176.75 142,191.96875 142,207.1875 z "
           style="fill:url(#radialGradient4394);fill-opacity:1;stroke:none;stroke-width:1.00005233;stroke-miterlimit:4;stroke-opacity:1;display:inline" />
      </g>
      <g
         style="display:inline"
         inkscape:label="outline"
         id="g2366">
        <path
           style="fill:#000000;fill-opacity:0.47058824;stroke:none;stroke-width:1.00005198;stroke-miterlimit:4;stroke-opacity:1;display:inline;filter:url(#filter6465)"
           d="M 126.50025,2.875 L 125.06275,4.3125 L 93.1565,36.21875 L 38.50025,36.21875 L 36.469,36.21875 L 36.469,38.28125 L 36.469,92.90625 L 4.31275,125.0625 L 2.844,126.5 L 4.31275,127.9375 L 36.469,160.09375 L 36.469,214.40625 L 36.469,216.46875 L 38.50025,216.46875 L 92.6565,216.46875 L 124.87525,248.65625 L 126.344,250.125 L 127.7815,248.65625 L 160.00025,216.46875 L 214.9065,216.46875 L 216.969,216.46875 L 216.969,214.40625 L 216.969,159.6875 L 248.719,127.9375 L 250.1565,126.5 L 248.719,125.0625 L 216.969,93.3125 L 216.969,38.03125 L 216.969,35.96875 L 214.9065,35.96875 L 159.594,35.96875 L 127.969,4.3125 L 126.50025,2.875 z M 126.50025,8.65625 L 153.81275,35.96875 L 136.969,35.96875 L 134.9065,35.96875 L 134.9065,38.03125 L 134.9065,104.6875 L 126.50025,113.09375 L 118.37525,104.96875 L 118.37525,38.28125 L 118.37525,36.21875 L 116.31275,36.21875 L 98.93775,36.21875 L 126.50025,8.65625 z M 139.00025,40.0625 L 157.9065,40.0625 L 178.719,60.875 L 139.00025,100.59375 L 139.00025,40.0625 z M 163.68775,40.0625 L 212.844,40.0625 L 212.844,89.1875 L 193.594,69.9375 L 192.12525,68.5 L 190.68775,69.9375 L 146.719,113.90625 L 139.00025,113.90625 L 139.00025,106.40625 L 183.06275,62.3125 L 184.5315,60.875 L 183.06275,59.4375 L 163.68775,40.0625 z M 40.56275,40.34375 L 89.0315,40.34375 L 69.93775,59.4375 L 68.50025,60.875 L 69.93775,62.3125 L 114.2815,106.65625 L 114.2815,113.90625 L 106.12525,113.90625 L 62.25025,70.03125 L 60.7815,68.5625 L 59.344,70.03125 L 40.56275,88.8125 L 40.56275,40.34375 z M 94.81275,40.34375 L 114.2815,40.34375 L 114.2815,100.875 L 74.2815,60.875 L 94.81275,40.34375 z M 192.12525,74.28125 L 212.844,95 L 212.844,113.90625 L 152.5315,113.90625 L 192.12525,74.28125 z M 60.7815,74.375 L 100.31275,113.90625 L 40.56275,113.90625 L 40.56275,94.59375 L 60.7815,74.375 z M 36.469,98.6875 L 36.469,115.96875 L 36.469,118.03125 L 38.50025,118.03125 L 104.43775,118.03125 L 113.00025,126.59375 L 105.1565,134.4375 L 38.50025,134.4375 L 36.469,134.4375 L 36.469,136.46875 L 36.469,154.3125 L 8.6565,126.5 L 36.469,98.6875 z M 216.969,99.125 L 244.344,126.5 L 216.969,153.875 L 216.969,136.46875 L 216.969,134.4375 L 214.9065,134.4375 L 147.87525,134.4375 L 139.93775,126.5 L 148.4065,118.03125 L 214.9065,118.03125 L 216.969,118.03125 L 216.969,115.96875 L 216.969,99.125 z M 134.9065,110.5 L 134.9065,115.96875 L 134.9065,118.03125 L 136.969,118.03125 L 142.594,118.03125 L 135.56275,125.0625 L 134.12525,126.5 L 135.56275,127.9375 L 142.06275,134.4375 L 136.969,134.4375 L 134.9065,134.4375 L 134.9065,136.46875 L 134.9065,143.03125 L 127.7815,135.90625 L 126.344,134.46875 L 124.87525,135.90625 L 118.50025,142.28125 L 118.50025,136.46875 L 118.50025,134.4375 L 116.43775,134.4375 L 110.93775,134.4375 L 117.344,128.03125 L 118.81275,126.59375 L 117.344,125.125 L 110.25025,118.03125 L 116.31275,118.03125 L 118.37525,118.03125 L 118.37525,115.96875 L 118.37525,110.75 L 125.06275,117.4375 L 126.50025,118.875 L 127.969,117.4375 L 134.9065,110.5 z M 40.56275,138.53125 L 101.06275,138.53125 L 60.87525,178.71875 L 40.56275,158.40625 L 40.56275,138.53125 z M 106.844,138.53125 L 114.4065,138.53125 L 114.4065,146.375 L 69.93775,190.84375 L 68.50025,192.28125 L 69.93775,193.75 L 88.56275,212.375 L 40.56275,212.375 L 40.56275,164.1875 L 59.43775,183.0625 L 60.87525,184.5 L 62.31275,183.0625 L 106.844,138.53125 z M 139.00025,138.53125 L 146.1565,138.53125 L 190.68775,183.0625 L 192.12525,184.5 L 193.594,183.0625 L 212.844,163.8125 L 212.844,212.375 L 164.094,212.375 L 182.719,193.75 L 184.1565,192.28125 L 182.719,190.84375 L 139.00025,147.125 L 139.00025,138.53125 z M 151.969,138.53125 L 212.844,138.53125 L 212.844,158 L 192.12525,178.71875 L 151.969,138.53125 z M 126.344,140.25 L 134.9065,148.8125 L 134.9065,214.40625 L 134.9065,216.46875 L 136.969,216.46875 L 154.18775,216.46875 L 126.344,244.3125 L 98.469,216.46875 L 116.43775,216.46875 L 118.50025,216.46875 L 118.50025,214.40625 L 118.50025,148.09375 L 126.344,140.25 z M 114.4065,152.1875 L 114.4065,212.375 L 94.37525,212.375 L 74.2815,192.28125 L 114.4065,152.1875 z M 139.00025,152.90625 L 178.37525,192.28125 L 158.2815,212.375 L 139.00025,212.375 L 139.00025,152.90625 z "
           id="path5494" />
        <path
           id="rect2140"
           d="M 125.5,1.875 L 124.0625,3.3125 L 92.15625,35.21875 L 37.5,35.21875 L 35.46875,35.21875 L 35.46875,37.28125 L 35.46875,91.90625 L 3.3125,124.0625 L 1.84375,125.5 L 3.3125,126.9375 L 35.46875,159.09375 L 35.46875,213.40625 L 35.46875,215.46875 L 37.5,215.46875 L 91.65625,215.46875 L 123.875,247.65625 L 125.34375,249.125 L 126.78125,247.65625 L 159,215.46875 L 213.90625,215.46875 L 215.96875,215.46875 L 215.96875,213.40625 L 215.96875,158.6875 L 247.71875,126.9375 L 249.15625,125.5 L 247.71875,124.0625 L 215.96875,92.3125 L 215.96875,37.03125 L 215.96875,34.96875 L 213.90625,34.96875 L 158.59375,34.96875 L 126.96875,3.3125 L 125.5,1.875 z M 125.5,7.65625 L 152.8125,34.96875 L 135.96875,34.96875 L 133.90625,34.96875 L 133.90625,37.03125 L 133.90625,103.6875 L 125.5,112.09375 L 117.375,103.96875 L 117.375,37.28125 L 117.375,35.21875 L 115.3125,35.21875 L 97.9375,35.21875 L 125.5,7.65625 z M 138,39.0625 L 156.90625,39.0625 L 177.71875,59.875 L 138,99.59375 L 138,39.0625 z M 162.6875,39.0625 L 211.84375,39.0625 L 211.84375,88.1875 L 192.59375,68.9375 L 191.125,67.5 L 189.6875,68.9375 L 145.71875,112.90625 L 138,112.90625 L 138,105.40625 L 182.0625,61.3125 L 183.53125,59.875 L 182.0625,58.4375 L 162.6875,39.0625 z M 39.5625,39.34375 L 88.03125,39.34375 L 68.9375,58.4375 L 67.5,59.875 L 68.9375,61.3125 L 113.28125,105.65625 L 113.28125,112.90625 L 105.125,112.90625 L 61.25,69.03125 L 59.78125,67.5625 L 58.34375,69.03125 L 39.5625,87.8125 L 39.5625,39.34375 z M 93.8125,39.34375 L 113.28125,39.34375 L 113.28125,99.875 L 73.28125,59.875 L 93.8125,39.34375 z M 191.125,73.28125 L 211.84375,94 L 211.84375,112.90625 L 151.53125,112.90625 L 191.125,73.28125 z M 59.78125,73.375 L 99.3125,112.90625 L 39.5625,112.90625 L 39.5625,93.59375 L 59.78125,73.375 z M 35.46875,97.6875 L 35.46875,114.96875 L 35.46875,117.03125 L 37.5,117.03125 L 103.4375,117.03125 L 112,125.59375 L 104.15625,133.4375 L 37.5,133.4375 L 35.46875,133.4375 L 35.46875,135.46875 L 35.46875,153.3125 L 7.65625,125.5 L 35.46875,97.6875 z M 215.96875,98.125 L 243.34375,125.5 L 215.96875,152.875 L 215.96875,135.46875 L 215.96875,133.4375 L 213.90625,133.4375 L 146.875,133.4375 L 138.9375,125.5 L 147.40625,117.03125 L 213.90625,117.03125 L 215.96875,117.03125 L 215.96875,114.96875 L 215.96875,98.125 z M 133.90625,109.5 L 133.90625,114.96875 L 133.90625,117.03125 L 135.96875,117.03125 L 141.59375,117.03125 L 134.5625,124.0625 L 133.125,125.5 L 134.5625,126.9375 L 141.0625,133.4375 L 135.96875,133.4375 L 133.90625,133.4375 L 133.90625,135.46875 L 133.90625,142.03125 L 126.78125,134.90625 L 125.34375,133.46875 L 123.875,134.90625 L 117.5,141.28125 L 117.5,135.46875 L 117.5,133.4375 L 115.4375,133.4375 L 109.9375,133.4375 L 116.34375,127.03125 L 117.8125,125.59375 L 116.34375,124.125 L 109.25,117.03125 L 115.3125,117.03125 L 117.375,117.03125 L 117.375,114.96875 L 117.375,109.75 L 124.0625,116.4375 L 125.5,117.875 L 126.96875,116.4375 L 133.90625,109.5 z M 39.5625,137.53125 L 100.0625,137.53125 L 59.875,177.71875 L 39.5625,157.40625 L 39.5625,137.53125 z M 105.84375,137.53125 L 113.40625,137.53125 L 113.40625,145.375 L 68.9375,189.84375 L 67.5,191.28125 L 68.9375,192.75 L 87.5625,211.375 L 39.5625,211.375 L 39.5625,163.1875 L 58.4375,182.0625 L 59.875,183.5 L 61.3125,182.0625 L 105.84375,137.53125 z M 138,137.53125 L 145.15625,137.53125 L 189.6875,182.0625 L 191.125,183.5 L 192.59375,182.0625 L 211.84375,162.8125 L 211.84375,211.375 L 163.09375,211.375 L 181.71875,192.75 L 183.15625,191.28125 L 181.71875,189.84375 L 138,146.125 L 138,137.53125 z M 150.96875,137.53125 L 211.84375,137.53125 L 211.84375,157 L 191.125,177.71875 L 150.96875,137.53125 z M 125.34375,139.25 L 133.90625,147.8125 L 133.90625,213.40625 L 133.90625,215.46875 L 135.96875,215.46875 L 153.1875,215.46875 L 125.34375,243.3125 L 97.46875,215.46875 L 115.4375,215.46875 L 117.5,215.46875 L 117.5,213.40625 L 117.5,147.09375 L 125.34375,139.25 z M 113.40625,151.1875 L 113.40625,211.375 L 93.375,211.375 L 73.28125,191.28125 L 113.40625,151.1875 z M 138,151.90625 L 177.375,191.28125 L 157.28125,211.375 L 138,211.375 L 138,151.90625 z "
           style="fill:#ffffff;fill-opacity:1;stroke:none;stroke-width:1.00005198;stroke-miterlimit:4;stroke-opacity:1;display:inline" />
      </g>
    </g>
  </g>
  <g
     inkscape:groupmode="layer"
     id="layer3"
     inkscape:label="Logo"
     style="opacity:0.74666664;display:inline" />
  <g
     inkscape:label="Layer 1"
     inkscape:groupmode="layer"
     id="layer1"
     style="opacity:1;display:inline">
    <text
       xml:space="preserve"
       style="font-size:10px;font-style:oblique;font-variant:normal;font-weight:normal;font-stretch:normal;text-align:start;line-height:100%;writing-mode:lr-tb;text-anchor:start;fill:#ffffff;fill-opacity:1;stroke:none;stroke-width:1px;stroke-linecap:butt;stroke-linejoin:miter;stroke-opacity:1;font-family:Luxi Sans"
       x="80.692154"
       y="101.24895"
       id="text1892"
       sodipodi:linespacing="100%"><tspan
         sodipodi:role="line"
         x="80.692154"
         y="101.24895"
         id="tspan2562"
         style="text-align:end;text-anchor:end">Website</tspan><tspan
         sodipodi:role="line"
         x="80.692154"
         y="111.24895"
         id="tspan2691"
         style="text-align:end;text-anchor:end" /><tspan
         sodipodi:role="line"
         x="80.692154"
         y="121.24895"
         id="tspan2693"
         style="text-align:end;text-anchor:end">Download</tspan><tspan
         sodipodi:role="line"
         x="80.692154"
         y="131.24895"
         id="tspan2695"
         style="text-align:end;text-anchor:end" /><tspan
         sodipodi:role="line"
         x="80.692154"
         y="141.24895"
         id="tspan2697"
         style="text-align:end;text-anchor:end">Wiki</tspan><tspan
         sodipodi:role="line"
         x="80.692154"
         y="151.24895"
         id="tspan2701"
         style="text-align:end;text-anchor:end" /><tspan
         sodipodi:role="line"
         x="80.692154"
         y="161.24895"
         id="tspan2699"
         style="text-align:end;text-anchor:end">Mailinglists</tspan><tspan
         sodipodi:role="line"
         x="80.692154"
         y="171.24895"
         id="tspan2703"
         style="text-align:end;text-anchor:end" /><tspan
         sodipodi:role="line"
         x="80.692154"
         y="181.24895"
         id="tspan2538"
         style="text-align:end;text-anchor:end">IRC</tspan></text>
    <text
       xml:space="preserve"
       style="font-size:10px;font-style:oblique;font-variant:normal;font-weight:bold;font-stretch:normal;text-align:start;line-height:129.99999523%;writing-mode:lr-tb;text-anchor:start;opacity:1;fill:#000000;fill-opacity:1;stroke:none;stroke-width:1px;stroke-linecap:butt;stroke-linejoin:miter;stroke-opacity:1;display:inline;font-family:Luxi Sans"
       x="102.18"
       y="34.05888"
       id="text1935"
       sodipodi:linespacing="130%"><tspan
         sodipodi:role="line"
         id="tspan1953"
         x="102.18"
         y="34.05888">Community Enterprise Linux OS</tspan></text>
    <text
       xml:space="preserve"
       style="font-size:12px;font-style:normal;font-variant:normal;font-weight:bold;font-stretch:normal;text-align:start;line-height:129.99999523%;writing-mode:lr-tb;text-anchor:start;opacity:1;fill:#000000;fill-opacity:1;stroke:none;stroke-width:1px;stroke-linecap:butt;stroke-linejoin:miter;stroke-opacity:1;display:inline;font-family:Luxi Sans"
       x="102.594"
       y="20.823143"
       id="text2186"
       sodipodi:linespacing="130%"><tspan
         sodipodi:role="line"
         id="tspan2188"
         x="102.594"
         y="20.823143">The CentOS Project</tspan></text>
    <text
       xml:space="preserve"
       style="font-size:10px;font-style:oblique;font-variant:normal;font-weight:normal;font-stretch:normal;text-align:start;line-height:100%;writing-mode:lr-tb;text-anchor:start;opacity:1;fill:#000000;fill-opacity:1;stroke:none;stroke-width:1px;stroke-linecap:butt;stroke-linejoin:miter;stroke-opacity:1;display:inline;font-family:Luxi Sans"
       x="102.524"
       y="101.09388"
       id="text2584"
       sodipodi:linespacing="100%"><tspan
         sodipodi:role="line"
         x="102.524"
         y="101.09388"
         id="tspan2586">http://www.centos.org/</tspan><tspan
         sodipodi:role="line"
         x="102.524"
         y="111.09388"
         id="tspan2588" /><tspan
         sodipodi:role="line"
         x="102.524"
         y="121.09388"
         id="tspan2590">http://mirrors.centos.org/</tspan><tspan
         sodipodi:role="line"
         x="102.524"
         y="131.09388"
         id="tspan2592" /><tspan
         sodipodi:role="line"
         x="102.524"
         y="141.09388"
         id="tspan2594">http://wiki.centos.org/</tspan><tspan
         sodipodi:role="line"
         x="102.524"
         y="151.09388"
         id="tspan2596" /><tspan
         sodipodi:role="line"
         x="102.524"
         y="161.09388"
         id="tspan2600">http://lists.centos.org/</tspan><tspan
         sodipodi:role="line"
         x="102.524"
         y="171.09388"
         id="tspan2602" /><tspan
         sodipodi:role="line"
         x="102.524"
         y="181.09388"
         id="tspan2606">#centos at irc.freenode.org</tspan><tspan
         sodipodi:role="line"
         x="102.524"
         y="191.09388"
         id="tspan2608" /><tspan
         sodipodi:role="line"
         x="102.524"
         y="201.09388"
         id="tspan2610" /><tspan
         sodipodi:role="line"
         x="102.524"
         y="211.09388"
         id="tspan2612" /></text>
    <text
       xml:space="preserve"
       style="font-size:10px;font-style:normal;font-variant:normal;font-weight:normal;font-stretch:normal;text-align:start;line-height:129.99999523%;writing-mode:lr-tb;text-anchor:start;opacity:1;fill:#000000;fill-opacity:1;stroke:none;stroke-width:1px;stroke-linecap:butt;stroke-linejoin:miter;stroke-opacity:1;display:inline;font-family:Luxi Sans"
       x="102.876"
       y="53.036884"
       id="text2711"
       sodipodi:linespacing="130%"><tspan
         sodipodi:role="line"
         x="102.876"
         y="53.036884"
         style="font-size:8px"
         id="tspan2719">CentOS is a free enterprise-class Linux distribution,</tspan><tspan
         sodipodi:role="line"
         x="102.876"
         y="63.436884"
         style="font-size:8px"
         id="tspan2731">based on the sources from Red Hat Enterprise Linux.</tspan><tspan
         sodipodi:role="line"
         x="102.876"
         y="73.836884"
         style="font-size:8px"
         id="tspan2723">A perfect fit for servers, appliances <tspan
   style="font-style:italic"
   id="tspan2735">and</tspan> desktops.</tspan></text>
  </g>
</svg>
